<?xml version="1.0" encoding="utf-8"?>
<!-- Generator: Adobe Illustrator 21.1.0, SVG Export Plug-In . SVG Version: 6.00 Build 0)  -->
<svg version="1.1" id="Calque_1" xmlns="http://www.w3.org/2000/svg" xmlns:xlink="http://www.w3.org/1999/xlink" x="0px" y="0px"
	 viewBox="0 0 115 67.7" style="enable-background:new 0 0 115 67.7;" xml:space="preserve">
<style type="text/css">
	.st0{enable-background:new    ;}
</style>
<title>showmoreicon</title>
<g id="Calque_2">
	<g id="Calque_1-2">
		<g class="st0">
			<path d="M59.5,28.2h12.1v4H59.5v12.5h-4.1V32.3h-12v-4h12V15.7h4.1V28.2z"/>
		</g>
	</g>
</g>
</svg>
